%YAML 1.1
%TAG !u! tag:unity3d.com,2011:
--- !u!114 &11400000
MonoBehaviour:
  m_ObjectHideFlags: 0
  m_PrefabParentObject: {fileID: 0}
  m_PrefabInternal: {fileID: 0}
  m_GameObject: {fileID: 0}
  m_Enabled: 1
  m_EditorHideFlags: 0
  m_Script: {fileID: 11500000, guid: b034880fe89af4e48a013061def99b73, type: 3}
  m_Name: Ashleigh
  m_EditorClassIdentifier: 
  employeeName: Ashleigh
  department: 5
  description: The job of the IT department is to ensure that computers, printers,
    phones and all technology within the business are working. Ashleigh is responsible
    for helping new employees get set up and established with their work computer.
  headshot: {fileID: 21300000, guid: a2ff8fad555d63e43827657e62e33b09, type: 3}
