%YAML 1.1
%TAG !u! tag:unity3d.com,2011:
--- !u!114 &11400000
MonoBehaviour:
  m_ObjectHideFlags: 0
  m_PrefabParentObject: {fileID: 0}
  m_PrefabInternal: {fileID: 0}
  m_GameObject: {fileID: 0}
  m_Enabled: 1
  m_EditorHideFlags: 0
  m_Script: {fileID: 11500000, guid: f1294f653b0eb2b40a3532577e87e7e7, type: 3}
  m_Name: Human Resources 2
  m_EditorClassIdentifier: 
  department: 1
  description: Sign up for new starter training / induction
